sim/iverilog.vcd
$date
	Wed Mar 22 13:59:36 2023
$end
$version
	Icarus Verilog
$end
$timescale
	1ps
$end
$scope module fifo $end
$var wire 1 ! clk_i $end
$var wire 8 " data_i [7:0] $end
$var wire 1 # full_w $end
$var wire 1 $ ready_o $end
$var wire 1 % reset_i $end
$var wire 1 & valid_i $end
$var wire 8 ' valid_o [7:0] $end
$var wire 1 ( yumi_i $end
$var wire 1 ) empty_w $end
$var wire 8 * data_o [7:0] $end
$var parameter 32 + depth_p $end
$var parameter 32 , width_p $end
$var reg 7 - rd_ptr_r [6:0] $end
$var reg 7 . wr_ptr_r [6:0] $end
$scope module ram_1w1r_async_inst $end
$var wire 1 ! clk_i $end
$var wire 7 / rd_addr_i [6:0] $end
$var wire 1 % reset_i $end
$var wire 7 0 wr_addr_i [6:0] $end
$var wire 8 1 wr_data_i [7:0] $end
$var wire 1 & wr_valid_i $end
$var wire 8 2 rd_data_o [7:0] $end
$var parameter 32 3 depth_p $end
$var parameter 160 4 filename_p $end
$var parameter 32 5 width_p $end
$upscope $end
$upscope $end
$scope module testbench $end
$var wire 4 6 z_valid_o [3:0] $end
$var wire 2 7 row_ready_o [1:0] $end
$var wire 1 8 reset_i $end
$var wire 128 9 flat_z_o [127:0] $end
$var wire 64 : flat_row_i [63:0] $end
$var wire 128 ; flat_correct_o [127:0] $end
$var wire 64 < flat_col_i [63:0] $end
$var wire 1 = error_o $end
$var wire 2 > col_ready_o [1:0] $end
$var wire 1 ? clk_i $end
$var parameter 32 @ array_height_p $end
$var parameter 32 A array_width_p $end
$var parameter 96 B max_clks $end
$var parameter 32 C width_p $end
$var reg 2 D col_valid_i [1:0] $end
$var reg 1 E en_i $end
$var reg 2 F flush_i [1:0] $end
$var reg 2 G row_valid_i [1:0] $end
$var reg 1 H timeout_o $end
$var reg 4 I z_yumi_i [3:0] $end
$var integer 32 J i [31:0] $end
$scope begin genblk1[0] $end
$var parameter 2 K j $end
$upscope $end
$scope begin genblk1[1] $end
$var parameter 2 L j $end
$upscope $end
$scope begin genblk2[0] $end
$var parameter 2 M j $end
$upscope $end
$scope begin genblk2[1] $end
$var parameter 2 N j $end
$upscope $end
$scope begin genblk3[0] $end
$var parameter 2 O j $end
$scope begin genblk1[0] $end
$var parameter 2 P k $end
$upscope $end
$scope begin genblk1[1] $end
$var parameter 2 Q k $end
$upscope $end
$upscope $end
$scope begin genblk3[1] $end
$var parameter 2 R j $end
$scope begin genblk1[0] $end
$var parameter 2 S k $end
$upscope $end
$scope begin genblk1[1] $end
$var parameter 2 T k $end
$upscope $end
$upscope $end
$scope begin genblk4[0] $end
$var parameter 2 U j $end
$scope begin genblk1[0] $end
$var parameter 2 V k $end
$upscope $end
$scope begin genblk1[1] $end
$var parameter 2 W k $end
$upscope $end
$upscope $end
$scope begin genblk4[1] $end
$var parameter 2 X j $end
$scope begin genblk1[0] $end
$var parameter 2 Y k $end
$upscope $end
$scope begin genblk1[1] $end
$var parameter 2 Z k $end
$upscope $end
$upscope $end
$scope module cg $end
$var parameter 32 [ cycle_time_p $end
$var reg 1 ? clk_o $end
$upscope $end
$scope module dut $end
$var wire 1 ? clk_i $end
$var wire 64 \ col_i [63:0] $end
$var wire 2 ] col_valid_i [1:0] $end
$var wire 1 E en_i $end
$var wire 2 ^ flush_i [1:0] $end
$var wire 64 _ row_i [63:0] $end
$var wire 2 ` row_valid_i [1:0] $end
$var wire 4 a z_yumi_i [3:0] $end
$var wire 4 b z_valid_o [3:0] $end
$var wire 128 c z_o [127:0] $end
$var wire 2 d row_ready_o [1:0] $end
$var wire 1 8 reset_i $end
$var wire 2 e col_ready_o [1:0] $end
$var parameter 32 f array_height_p $end
$var parameter 32 g array_width_p $end
$var parameter 32 h width_p $end
$scope begin genblk1[0] $end
$var parameter 2 i i $end
$upscope $end
$scope begin genblk1[1] $end
$var parameter 2 j i $end
$upscope $end
$scope begin genblk2[0] $end
$var parameter 2 k i $end
$upscope $end
$scope begin genblk2[1] $end
$var parameter 2 l i $end
$upscope $end
$scope begin genblk3[0] $end
$var parameter 2 m i $end
$scope begin genblk1[0] $end
$var parameter 2 n j $end
$upscope $end
$scope begin genblk1[1] $end
$var parameter 2 o j $end
$upscope $end
$upscope $end
$scope begin genblk3[1] $end
$var parameter 2 p i $end
$scope begin genblk1[0] $end
$var parameter 2 q j $end
$upscope $end
$scope begin genblk1[1] $end
$var parameter 2 r j $end
$upscope $end
$upscope $end
$scope begin genblk4[0] $end
$var parameter 2 s i $end
$upscope $end
$scope begin genblk4[1] $end
$var parameter 2 t i $end
$upscope $end
$scope begin genblk5[0] $end
$var parameter 2 u i $end
$upscope $end
$scope begin genblk5[1] $end
$var parameter 2 v i $end
$upscope $end
$scope begin genblk6[0] $end
$var parameter 2 w i $end
$scope begin genblk1[0] $end
$var parameter 2 x j $end
$scope module mac_inst $end
$var wire 32 y a_i [31:0] $end
$var wire 32 z a_o [31:0] $end
$var wire 1 { a_ready_o $end
$var wire 1 | a_valid_i $end
$var wire 1 } a_valid_o $end
$var wire 1 ~ accum_valid_o $end
$var wire 32 !" b_i [31:0] $end
$var wire 32 "" b_o [31:0] $end
$var wire 1 #" b_ready_o $end
$var wire 1 $" b_valid_i $end
$var wire 1 %" b_valid_o $end
$var wire 1 ? clk_i $end
$var wire 1 E en_i $end
$var wire 1 &" flush_i $end
$var wire 1 8 reset_i $end
$var wire 1 '" flush_o $end
$var wire 1 (" b_yumi_i $end
$var wire 32 )" accum_o [31:0] $end
$var wire 1 *" a_yumi_i $end
$var parameter 32 +" width_p $end
$var reg 32 ," a_r [31:0] $end
$var reg 32 -" accum_r [31:0] $end
$var reg 32 ." b_r [31:0] $end
$var reg 1 '" flush_r $end
$var reg 32 /" product_r [31:0] $end
$var reg 1 0" reset_flush_r $end
$var reg 8 1" state_n [7:0] $end
$var reg 8 2" state_r [7:0] $end
$upscope $end
$upscope $end
$scope begin genblk1[1] $end
$var parameter 2 3" j $end
$scope module mac_inst $end
$var wire 32 4" a_i [31:0] $end
$var wire 32 5" a_o [31:0] $end
$var wire 1 *" a_ready_o $end
$var wire 1 } a_valid_i $end
$var wire 1 6" a_valid_o $end
$var wire 1 7" a_yumi_i $end
$var wire 1 8" accum_valid_o $end
$var wire 32 9" b_i [31:0] $end
$var wire 32 :" b_o [31:0] $end
$var wire 1 ;" b_ready_o $end
$var wire 1 <" b_valid_i $end
$var wire 1 =" b_valid_o $end
$var wire 1 ? clk_i $end
$var wire 1 E en_i $end
$var wire 1 '" flush_i $end
$var wire 1 >" flush_o $end
$var wire 1 8 reset_i $end
$var wire 1 ?" b_yumi_i $end
$var wire 32 @" accum_o [31:0] $end
$var parameter 32 A" width_p $end
$var reg 32 B" a_r [31:0] $end
$var reg 32 C" accum_r [31:0] $end
$var reg 32 D" b_r [31:0] $end
$var reg 1 E" flush_r $end
$var reg 32 F" product_r [31:0] $end
$var reg 1 G" reset_flush_r $end
$var reg 8 H" state_n [7:0] $end
$var reg 8 I" state_r [7:0] $end
$upscope $end
$upscope $end
$upscope $end
$scope begin genblk6[1] $end
$var parameter 2 J" i $end
$scope begin genblk1[0] $end
$var parameter 2 K" j $end
$scope module mac_inst $end
$var wire 32 L" a_i [31:0] $end
$var wire 32 M" a_o [31:0] $end
$var wire 1 N" a_ready_o $end
$var wire 1 O" a_valid_i $end
$var wire 1 P" a_valid_o $end
$var wire 1 Q" accum_valid_o $end
$var wire 32 R" b_i [31:0] $end
$var wire 32 S" b_o [31:0] $end
$var wire 1 (" b_ready_o $end
$var wire 1 %" b_valid_i $end
$var wire 1 T" b_valid_o $end
$var wire 1 U" b_yumi_i $end
$var wire 1 ? clk_i $end
$var wire 1 E en_i $end
$var wire 1 V" flush_i $end
$var wire 1 8 reset_i $end
$var wire 1 W" flush_o $end
$var wire 32 X" accum_o [31:0] $end
$var wire 1 Y" a_yumi_i $end
$var parameter 32 Z" width_p $end
$var reg 32 [" a_r [31:0] $end
$var reg 32 \" accum_r [31:0] $end
$var reg 32 ]" b_r [31:0] $end
$var reg 1 W" flush_r $end
$var reg 32 ^" product_r [31:0] $end
$var reg 1 _" reset_flush_r $end
$var reg 8 `" state_n [7:0] $end
$var reg 8 a" state_r [7:0] $end
$upscope $end
$upscope $end
$scope begin genblk1[1] $end
$var parameter 2 b" j $end
$scope module mac_inst $end
$var wire 32 c" a_i [31:0] $end
$var wire 32 d" a_o [31:0] $end
$var wire 1 Y" a_ready_o $end
$var wire 1 P" a_valid_i $end
$var wire 1 e" a_valid_o $end
$var wire 1 f" a_yumi_i $end
$var wire 1 g" accum_valid_o $end
$var wire 32 h" b_i [31:0] $end
$var wire 32 i" b_o [31:0] $end
$var wire 1 ?" b_ready_o $end
$var wire 1 =" b_valid_i $end
$var wire 1 j" b_valid_o $end
$var wire 1 k" b_yumi_i $end
$var wire 1 ? clk_i $end
$var wire 1 E en_i $end
$var wire 1 W" flush_i $end
$var wire 1 l" flush_o $end
$var wire 1 8 reset_i $end
$var wire 32 m" accum_o [31:0] $end
$var parameter 32 n" width_p $end
$var reg 32 o" a_r [31:0] $end
$var reg 32 p" accum_r [31:0] $end
$var reg 32 q" b_r [31:0] $end
$var reg 1 r" flush_r $end
$var reg 32 s" product_r [31:0] $end
$var reg 1 t" reset_flush_r $end
$var reg 8 u" state_n [7:0] $end
$var reg 8 v" state_r [7:0] $end
$upscope $end
$upscope $end
$upscope $end
$upscope $end
$scope module rg $end
$var wire 1 w" clk_i $end
$var wire 1 x" phase_lo_r $end
$var wire 1 y" phase_hi_r $end
$var wire 1 z" in_phase_2 $end
$var wire 1 {" in_phase_1 $end
$var wire 1 8 async_reset_o $end
$var parameter 32 |" num_clocks_p $end
$var parameter 32 }" reset_cycles_hi_p $end
$var parameter 32 ~" reset_cycles_lo_p $end
$var reg 4 !# ctr_hi_r [3:0] $end
$var reg 1 "# ctr_lo_r $end
$scope begin rof[0] $end
$var parameter 2 ## i $end
$upscope $end
$upscope $end
$upscope $end
$enddefinitions $end
$comment Show the parameter values. $end
$dumpall
b0 ##
b1 ~"
b1010 }"
b1 |"
b100000 n"
b1 b"
b100000 Z"
b0 K"
b1 J"
b100000 A"
b1 3"
b100000 +"
b0 x
b0 w
b1 v
b0 u
b1 t
b0 s
b1 r
b0 q
b1 p
b1 o
b0 n
b0 m
b1 l
b0 k
b1 j
b0 i
b100000 h
b10 g
b10 f
b1010 [
b1 Z
b0 Y
b1 X
b1 W
b0 V
b0 U
b1 T
b0 S
b1 R
b1 Q
b0 P
b0 O
b1 N
b0 M
b1 L
b0 K
b100000 C
b1000 B
b10 A
b10 @
b1000 5
b110110101100101011011010110111101110010011110010101111101101001011011100110100101110100010111110110011001101001011011000110010100101110011010000110010101111000 4
b10000000 3
b1000 ,
b10000000 +
$end
#0
$dumpvars
0"#
b0 !#
0{"
0z"
0y"
0x"
0w"
bx v"
bx u"
xt"
bx s"
xr"
bx q"
bx p"
bx o"
bx m"
xl"
1k"
xj"
bx i"
bx h"
xg"
1f"
xe"
bx d"
bx c"
bx a"
bx `"
x_"
bx ^"
bx ]"
bx \"
bx ["
xY"
bx X"
xW"
0V"
1U"
xT"
bx S"
bx R"
0Q"
xP"
0O"
xN"
bx M"
b0 L"
bx I"
bx H"
xG"
bx F"
xE"
bx D"
bx C"
bx B"
bx @"
x?"
x>"
x="
0<"
x;"
bx :"
b0 9"
x8"
17"
x6"
bx 5"
bx 4"
bx 2"
bx 1"
x0"
bx /"
bx ."
bx -"
bx ,"
x*"
bx )"
x("
x'"
0&"
x%"
0$"
x#"
bx ""
b0 !"
0~
x}
0|
x{
bx z
b0 y
bx e
bx d
bx c
bx00 b
b0 a
b0 `
b0 _
b0 ^
b0 ]
b0 \
b0 J
b0 I
xH
b0 G
b0 F
1E
b0 D
0?
bx >
x=
b0 <
b11110111111111111111111110001100001010000000000000000010101011011111011111111111111111111011111001001 ;
b0 :
bx 9
08
bx 7
bx00 6
bx 2
bz 1
bx 0
bx /
bx .
bx -
bx *
x)
z(
b1111111x '
z&
z%
x$
x#
bz "
z!
$end
#5000
1w"
1?
#10000
18
1{"
1x"
1"#
0w"
0?
#15000
b1 u"
1Y"
1?"
0e"
0j"
b1 `"
1N"
1("
0P"
0T"
b1 H"
1*"
1;"
06"
0="
b1 1"
b11 7
b11 d
1{
b11 >
b11 e
1#"
0}
0%"
b0 m"
b0 p"
b0 s"
b0 i"
b0 q"
b0 d"
b0 o"
0l"
0r"
b1 v"
b0 X"
b0 \"
b0 ^"
b0 S"
b0 ]"
b0 M"
b0 c"
b0 ["
0g"
0W"
b1 a"
b0 @"
b0 C"
b0 F"
b0 :"
b0 h"
b0 D"
b0 5"
b0 B"
0>"
0E"
b1 I"
1=
b0 9
b0 c
b0 )"
b0 -"
b0 /"
b0 ""
b0 R"
b0 ."
b0 z
b0 4"
b0 ,"
b0 6
b0 b
08"
0'"
b1 2"
1w"
1?
#20000
b1 !#
0w"
0?
#25000
00"
0G"
0_"
0t"
1w"
1?
#30000
b10 !#
0w"
0?
#35000
1w"
1?
#40000
b11 !#
0w"
0?
#45000
1w"
1?
#50000
b100 !#
0w"
0?
#55000
1w"
1?
#60000
b101 !#
0w"
0?
#65000
1w"
1?
#70000
b110 !#
0w"
0?
#75000
1w"
1?
#80000
b111 !#
0w"
0?
#85000
1w"
1?
#90000
b1000 !#
0w"
0?
#95000
1w"
1?
#100000
b1001 !#
0w"
0?
#105000
1w"
1?
#110000
08
1z"
1y"
b1010 !#
0w"
0?
#115000
1w"
1?
#120000
b1000 1"
1$"
1|
b10110 !"
b101100 y
b1 D
b1 ]
b1 G
b1 `
b10110 <
b10110 \
b101100 :
b101100 _
0w"
0?
#125000
b10000 1"
b10 7
b10 d
0{
b10 >
b10 e
0#"
b1000 2"
b101100 z
b101100 4"
b101100 ,"
b10110 ""
b10110 R"
b10110 ."
1w"
1?
#130000
0$"
0|
b0 D
b0 ]
b0 G
b0 `
0w"
0?
#135000
b10000000 1"
b10110 S"
b10110 ]"
b101100 5"
b101100 B"
b1111001000 /"
b10000 2"
b1 J
1w"
1?
#140000
0w"
0?
#145000
b10 H"
b100 `"
b1 1"
1}
1%"
b10000000 2"
b1111001000 9
b1111001000 c
b1111001000 )"
b1111001000 -"
b10 J
1w"
1?
#150000
0w"
0?
#155000
0("
0*"
b11 7
b11 d
1{
b11 >
b11 e
1#"
0}
0%"
b100 a"
b10 I"
b1 2"
b11 J
1w"
1?
#160000
0w"
0?
#165000
b100 J
1w"
1?
#170000
0w"
0?
#175000
b101 J
1w"
1?
#180000
0w"
0?
#185000
b110 J
1w"
1?
#190000
0w"
0?
#195000
b111 J
1w"
1?
#200000
0w"
0?
#205000
b1000 J
1w"
1?
#210000
b1000 H"
b1000 1"
b1000 `"
1$"
1<"
1|
1O"
b1010011 !"
b11111111111111111111111111111111 9"
b11111111111111111111111111011011 y
b1111000000 L"
b11 D
b11 ]
b11 G
b11 `
b1111111111111111111111111111111100000000000000000000000001010011 <
b1111111111111111111111111111111100000000000000000000000001010011 \
b111100000011111111111111111111111111011011 :
b111100000011111111111111111111111111011011 _
0w"
0?
#215000
b10000 `"
0N"
b10000 H"
0;"
b10000 1"
b0 7
b0 d
0{
b0 >
b0 e
0#"
b1111000000 M"
b1111000000 c"
b1111000000 ["
b1000 a"
b11111111111111111111111111111111 :"
b11111111111111111111111111111111 h"
b11111111111111111111111111111111 D"
b1000 I"
b1010011 ""
b1010011 R"
b1010011 ."
b11111111111111111111111111011011 z
b11111111111111111111111111011011 4"
b11111111111111111111111111011011 ,"
b1000 2"
1w"
1?
#220000
0$"
0<"
0|
0O"
b0 J
b0 D
b0 ]
b0 G
b0 `
0w"
0?
#225000
b10000000 1"
b10000000 H"
b10000000 `"
b10000 2"
b11111111111111111111010000000001 /"
b10000 I"
b11111111111111111111111111010100 F"
b10000 a"
b101001010000000 ^"
b1111000000 d"
b1111000000 o"
b11111111111111111111111111111111 i"
b11111111111111111111111111111111 q"
b1 J
1w"
1?
#230000
0w"
0?
#235000
b1000 u"
b1 `"
1P"
1T"
b1 H"
16"
1="
1}
1%"
b101001010000000 X"
b101001010000000 \"
b10000000 a"
b11111111111111111111111111010100 @"
b11111111111111111111111111010100 C"
b10000000 I"
b111111111111111111111111110101000000000000000000010100101000000011111111111111111111011111001001 9
b111111111111111111111111110101000000000000000000010100101000000011111111111111111111011111001001 c
b11111111111111111111011111001001 )"
b11111111111111111111011111001001 -"
b10000000 2"
b10 J
1w"
1?
#240000
0w"
0?
#245000
b1 1"
b10 H"
1*"
b10 >
b10 e
1;"
06"
0="
b100 `"
b10 7
b10 d
1N"
1("
0P"
0T"
b10000 u"
0Y"
0?"
b1 I"
b1 a"
b1000 v"
b11 J
1w"
1?
#250000
0w"
0?
#255000
b10000000 u"
0("
0*"
b11 7
b11 d
1{
b11 >
b11 e
1#"
0}
0%"
b11111111111111111111110001000000 s"
b10000 v"
b1010011 S"
b1010011 ]"
b100 a"
b11111111111111111111111111011011 5"
b11111111111111111111111111011011 B"
b10 I"
b1 2"
b100 J
1w"
1?
#260000
0w"
0?
#265000
b1 u"
1e"
1j"
b10000000 v"
b11111111111111111111110001000000111111111111111111111111110101000000000000000000010100101000000011111111111111111111011111001001 9
b11111111111111111111110001000000111111111111111111111111110101000000000000000000010100101000000011111111111111111111011111001001 c
b11111111111111111111110001000000 m"
b11111111111111111111110001000000 p"
b101 J
1w"
1?
#270000
0w"
0?
#275000
1Y"
1?"
0e"
0j"
b1 v"
b110 J
1w"
1?
#280000
0w"
0?
#285000
b111 J
1w"
1?
#290000
0w"
0?
#295000
b1000 J
1w"
1?
#300000
b1000 H"
b1000 `"
1<"
1O"
b0 !"
b1100011 9"
b0 y
b1010 L"
b10 D
b10 ]
b10 G
b10 `
b110001100000000000000000000000000000000 <
b110001100000000000000000000000000000000 \
b101000000000000000000000000000000000 :
b101000000000000000000000000000000000 _
0w"
0?
#305000
b10000 H"
b1 >
b1 e
0;"
b10000 `"
b1 7
b1 d
0N"
b0 z
b0 4"
b0 ,"
b0 ""
b0 R"
b0 ."
b1000 I"
b1100011 :"
b1100011 h"
b1100011 D"
b1000 a"
b1010 M"
b1010 c"
b1010 ["
1w"
1?
#310000
0<"
0O"
b0 J
b0 D
b0 ]
b0 G
b0 `
0w"
0?
#315000
b10000000 `"
b10000000 H"
b1100011 i"
b1100011 q"
b1010 d"
b1010 o"
b1100111110 ^"
b10000 a"
b11111111111111111111000110110001 F"
b10000 I"
b1 J
1w"
1?
#320000
0w"
0?
#325000
b1000 u"
b1 H"
16"
1="
b1 `"
1P"
1T"
b10000000 I"
b11111111111111111111000110000101 @"
b11111111111111111111000110000101 C"
b10000000 a"
b11111111111111111111110001000000111111111111111111110001100001010000000000000000010101011011111011111111111111111111011111001001 9
b11111111111111111111110001000000111111111111111111110001100001010000000000000000010101011011111011111111111111111111011111001001 c
b101010110111110 X"
b101010110111110 \"
b10 J
1w"
1?
#330000
0w"
0?
#335000
b10000 u"
0Y"
0?"
b11 7
b11 d
1N"
1("
0P"
0T"
1*"
b11 >
b11 e
1;"
06"
0="
b1000 v"
b1 a"
b1 I"
b11 J
1w"
1?
#340000
0w"
0?
#345000
b10000000 u"
b0 5"
b0 B"
b0 S"
b0 ]"
b10000 v"
b1111011110 s"
b100 J
1w"
1?
#350000
0w"
0?
#355000
b1 u"
1e"
1j"
0=
b11110111111111111111111110001100001010000000000000000010101011011111011111111111111111111011111001001 9
b11110111111111111111111110001100001010000000000000000010101011011111011111111111111111111011111001001 c
b11110 m"
b11110 p"
b10000000 v"
b101 J
1w"
1?
#360000
0w"
0?
#365000
1Y"
1?"
0e"
0j"
b1 v"
b110 J
1w"
1?
#370000
0w"
0?
#375000
b111 J
1w"
1?
#380000
0w"
0?
#385000
b1000 J
1w"
1?
