systolic_array.sim/sim_1/behav/xsim/iverilog.vcd
$date
   Thu Mar 23 17:04:18 2023
$end
$version
  2019.1
$end
$timescale
  1ps
$end
$scope module testbench $end
$var reg 1 ! clk_i $end
$var reg 1 " reset_i $end
$var reg 1 # en_i $end
$var reg 1 $ error_o $end
$var reg 32 % i $end
$var reg 64 & flat_row_i [63:0] $end
$var reg 2 ' flush_i [1:0] $end
$var reg 2 ( row_valid_i [1:0] $end
$var reg 2 ) row_ready_o [1:0] $end
$var reg 64 * flat_col_i [63:0] $end
$var reg 2 + col_valid_i [1:0] $end
$var reg 2 , col_ready_o [1:0] $end
$var reg 128 - flat_z_o [127:0] $end
$var reg 128 . flat_correct_o [127:0] $end
$var reg 4 / z_valid_o [3:0] $end
$var reg 4 0 z_yumi_i [3:0] $end
$var parameter 32 1 width_p [31:0] $end
$var parameter 32 2 array_width_p [31:0] $end
$var parameter 32 3 array_height_p [31:0] $end
$var parameter 32 4 max_clks [31:0] $end
$scope module cg $end
$var reg 1 5 clk_o $end
$var parameter 32 6 cycle_time_p [31:0] $end
$upscope $end
$scope module rg $end
$var reg 1 7 clk_i [0:0] $end
$var reg 1 8 async_reset_o $end
$var reg 1 9 ctr_lo_r [0:0] $end
$var reg 4 : ctr_hi_r [0:0] $end
$var reg 1 ; phase_lo_r [0:0] $end
$var reg 1 < phase_hi_r [0:0] $end
$var wire 1 = in_phase_1 $end
$var wire 1 > in_phase_2 $end
$var parameter 32 ? num_clocks_p [31:0] $end
$var parameter 32 @ reset_cycles_lo_p [31:0] $end
$var parameter 32 A reset_cycles_hi_p [31:0] $end
$upscope $end
$scope module dut $end
$var wire 1 B clk_i [0:0] $end
$var wire 1 C reset_i [0:0] $end
$var wire 1 D en_i [0:0] $end
$var wire 2 E flush_i [1:0] $end
$var wire 64 F row_i [63:0] $end
$var wire 2 G row_valid_i [1:0] $end
$var wire 2 H row_ready_o [1:0] $end
$var wire 64 I col_i [63:0] $end
$var wire 2 J col_valid_i [1:0] $end
$var wire 2 K col_ready_o [1:0] $end
$var wire 128 L z_o [127:0] $end
$var wire 4 M z_valid_o [3:0] $end
$var wire 4 N z_yumi_i [3:0] $end
$var parameter 32 O width_p [31:0] $end
$var parameter 32 P array_width_p [31:0] $end
$var parameter 32 Q array_height_p [31:0] $end
$scope module genblk6[0].genblk1[0].mac_inst $end
$var wire 1 B clk_i [0:0] $end
$var wire 1 C reset_i [0:0] $end
$var wire 1 D en_i [0:0] $end
$var wire 1 R flush_i [0:0] $end
$var wire 1 S flush_o [0:0] $end
$var wire 32 T accum_o [31:0] $end
$var wire 1 U accum_valid_o [0:0] $end
$var wire 1 V a_valid_i [0:0] $end
$var wire 1 W a_ready_o [0:0] $end
$var wire 32 X a_i [31:0] $end
$var wire 1 Y b_valid_i [0:0] $end
$var wire 1 Z b_ready_o [0:0] $end
$var wire 32 [ b_i [31:0] $end
$var wire 1 \ a_valid_o [0:0] $end
$var wire 1 ] a_yumi_i [0:0] $end
$var wire 32 ^ a_o [31:0] $end
$var wire 1 _ b_valid_o [0:0] $end
$var wire 1 ` b_yumi_i [0:0] $end
$var wire 32 a b_o [31:0] $end
$var reg 8 b state_r [7:0] $end
$var reg 8 c state_n [7:0] $end
$var reg 32 d a_r [31:0] $end
$var reg 32 e b_r [31:0] $end
$var reg 32 f accum_r [31:0] $end
$var reg 32 g product_r [31:0] $end
$var reg 1 h flush_r [0:0] $end
$var reg 1 i reset_flush_r [0:0] $end
$var parameter 32 j width_p [31:0] $end
$upscope $end
$scope module genblk6[0].genblk1[1].mac_inst $end
$var wire 1 B clk_i [0:0] $end
$var wire 1 C reset_i [0:0] $end
$var wire 1 D en_i [0:0] $end
$var wire 1 S flush_i [0:0] $end
$var wire 1 k flush_o [0:0] $end
$var wire 32 l accum_o [31:0] $end
$var wire 1 m accum_valid_o [0:0] $end
$var wire 1 \ a_valid_i [0:0] $end
$var wire 1 ] a_ready_o [0:0] $end
$var wire 32 ^ a_i [31:0] $end
$var wire 1 n b_valid_i [0:0] $end
$var wire 1 o b_ready_o [0:0] $end
$var wire 32 p b_i [31:0] $end
$var wire 1 q a_valid_o [0:0] $end
$var wire 1 r a_yumi_i [0:0] $end
$var wire 32 s a_o [31:0] $end
$var wire 1 t b_valid_o [0:0] $end
$var wire 1 u b_yumi_i [0:0] $end
$var wire 32 v b_o [31:0] $end
$var reg 8 w state_r [7:0] $end
$var reg 8 x state_n [7:0] $end
$var reg 32 y a_r [31:0] $end
$var reg 32 z b_r [31:0] $end
$var reg 32 { accum_r [31:0] $end
$var reg 32 | product_r [31:0] $end
$var reg 1 } flush_r [0:0] $end
$var reg 1 ~ reset_flush_r [0:0] $end
$var parameter 32 !! width_p [31:0] $end
$upscope $end
$scope module genblk6[1].genblk1[0].mac_inst $end
$var wire 1 B clk_i [0:0] $end
$var wire 1 C reset_i [0:0] $end
$var wire 1 D en_i [0:0] $end
$var wire 1 "! flush_i [0:0] $end
$var wire 1 #! flush_o [0:0] $end
$var wire 32 $! accum_o [31:0] $end
$var wire 1 %! accum_valid_o [0:0] $end
$var wire 1 &! a_valid_i [0:0] $end
$var wire 1 '! a_ready_o [0:0] $end
$var wire 32 (! a_i [31:0] $end
$var wire 1 _ b_valid_i [0:0] $end
$var wire 1 ` b_ready_o [0:0] $end
$var wire 32 a b_i [31:0] $end
$var wire 1 )! a_valid_o [0:0] $end
$var wire 1 *! a_yumi_i [0:0] $end
$var wire 32 +! a_o [31:0] $end
$var wire 1 ,! b_valid_o [0:0] $end
$var wire 1 -! b_yumi_i [0:0] $end
$var wire 32 .! b_o [31:0] $end
$var reg 8 /! state_r [7:0] $end
$var reg 8 0! state_n [7:0] $end
$var reg 32 1! a_r [31:0] $end
$var reg 32 2! b_r [31:0] $end
$var reg 32 3! accum_r [31:0] $end
$var reg 32 4! product_r [31:0] $end
$var reg 1 5! flush_r [0:0] $end
$var reg 1 6! reset_flush_r [0:0] $end
$var parameter 32 7! width_p [31:0] $end
$upscope $end
$scope module genblk6[1].genblk1[1].mac_inst $end
$var wire 1 B clk_i [0:0] $end
$var wire 1 C reset_i [0:0] $end
$var wire 1 D en_i [0:0] $end
$var wire 1 #! flush_i [0:0] $end
$var wire 1 8! flush_o [0:0] $end
$var wire 32 9! accum_o [31:0] $end
$var wire 1 :! accum_valid_o [0:0] $end
$var wire 1 )! a_valid_i [0:0] $end
$var wire 1 *! a_ready_o [0:0] $end
$var wire 32 +! a_i [31:0] $end
$var wire 1 t b_valid_i [0:0] $end
$var wire 1 u b_ready_o [0:0] $end
$var wire 32 v b_i [31:0] $end
$var wire 1 ;! a_valid_o [0:0] $end
$var wire 1 <! a_yumi_i [0:0] $end
$var wire 32 =! a_o [31:0] $end
$var wire 1 >! b_valid_o [0:0] $end
$var wire 1 ?! b_yumi_i [0:0] $end
$var wire 32 @! b_o [31:0] $end
$var reg 8 A! state_r [7:0] $end
$var reg 8 B! state_n [7:0] $end
$var reg 32 C! a_r [31:0] $end
$var reg 32 D! b_r [31:0] $end
$var reg 32 E! accum_r [31:0] $end
$var reg 32 F! product_r [31:0] $end
$var reg 1 G! flush_r [0:0] $end
$var reg 1 H! reset_flush_r [0:0] $end
$var parameter 32 I! width_p [31:0] $end
$upscope $end
$upscope $end
$upscope $end
$enddefinitions $end
#0
$dumpvars
0!
b100000 !!
0"
0"!
1#
x#!
1$
bx $!
b0 %
0%!
b0 &
0&!
b0 '
x'!
b0 (
b0 (!
bx )
x)!
b0 *
x*!
b0 +
bx +!
bx ,
x,!
bx -
1-!
b11110111111111111111111110001100001010000000000000000010101011011111011111111111111111111011111001001 .
bx .!
bx00 /
bx /!
b0 0
bx 0!
b100000 1
bx 1!
b10 2
bx 2!
b10 3
bx 3!
b1000 4
bx 4!
05
x5!
b1010 6
x6!
07
b100000 7!
08
x8!
09
bx 9!
b0 :
x:!
0;
x;!
0<
1<!
0=
bx =!
0>
x>!
b1 ?
1?!
b1 @
bx @!
b1010 A
bx A!
0B
bx B!
0C
bx C!
1D
bx D!
b0 E
bx E!
b0 F
bx F!
b0 G
xG!
bx H
xH!
b0 I
b100000 I!
b0 J
bx K
bx L
bx00 M
b0 N
b100000 O
b10 P
b10 Q
0R
xS
bx T
0U
0V
xW
b0 X
0Y
xZ
b0 [
x\
x]
bx ^
x_
x`
bx a
bx b
bx c
bx d
bx e
bx f
bx g
xh
xi
b100000 j
xk
bx l
xm
0n
xo
b0 p
xq
1r
bx s
xt
xu
bx v
bx w
bx x
bx y
bx z
bx {
bx |
x}
x~
$end
#5000
1!
bx /!
15
x6!
17
bx A!
1B
xH!
bx b
xi
bx w
x~
#10000
0!
1"
05
07
18
19
1;
1=
0B
1C
#15000
1!
0#!
1$
b0 $!
1'!
b11 )
0)!
1*!
b0 +!
b11 ,
0,!
b0 -
b0 .!
b0 /
b1 /!
b1 0!
b0 1!
b0 2!
b0 3!
b0 4!
15
05!
x6!
17
08!
b0 9!
0:!
0;!
b0 =!
0>!
b0 @!
b1 A!
1B
b1 B!
b0 C!
b0 D!
b0 E!
b0 F!
0G!
b11 H
xH!
b11 K
b0 L
b0 M
0S
b0 T
1W
1Z
0\
1]
b0 ^
0_
1`
b0 a
b1 b
b1 c
b0 d
b0 e
b0 f
b0 g
0h
xi
0k
b0 l
0m
1o
0q
b0 s
0t
1u
b0 v
b1 w
b1 x
b0 y
b0 z
b0 {
b0 |
0}
x~
#20000
0!
05
07
b1 :
0<
0B
#25000
1!
b1 /!
b0 1!
b0 2!
b0 3!
b0 4!
15
05!
06!
17
b1 A!
1B
b0 C!
b0 D!
b0 E!
b0 F!
0G!
0H!
b1 b
b0 d
b0 e
b0 f
b0 g
0h
0i
b1 w
b0 y
b0 z
b0 {
b0 |
0}
0~
#30000
0!
05
07
b10 :
0<
0B
#35000
1!
b1 /!
b0 1!
b0 2!
b0 3!
b0 4!
15
05!
06!
17
b1 A!
1B
b0 C!
b0 D!
b0 E!
b0 F!
0G!
0H!
b1 b
b0 d
b0 e
b0 f
b0 g
0h
0i
b1 w
b0 y
b0 z
b0 {
b0 |
0}
0~
#40000
0!
05
07
b11 :
0<
0B
#45000
1!
b1 /!
b0 1!
b0 2!
b0 3!
b0 4!
15
05!
06!
17
b1 A!
1B
b0 C!
b0 D!
b0 E!
b0 F!
0G!
0H!
b1 b
b0 d
b0 e
b0 f
b0 g
0h
0i
b1 w
b0 y
b0 z
b0 {
b0 |
0}
0~
#50000
0!
05
07
b100 :
0<
0B
#55000
1!
b1 /!
b0 1!
b0 2!
b0 3!
b0 4!
15
05!
06!
17
b1 A!
1B
b0 C!
b0 D!
b0 E!
b0 F!
0G!
0H!
b1 b
b0 d
b0 e
b0 f
b0 g
0h
0i
b1 w
b0 y
b0 z
b0 {
b0 |
0}
0~
#60000
0!
05
07
b101 :
0<
0B
#65000
1!
b1 /!
b0 1!
b0 2!
b0 3!
b0 4!
15
05!
06!
17
b1 A!
1B
b0 C!
b0 D!
b0 E!
b0 F!
0G!
0H!
b1 b
b0 d
b0 e
b0 f
b0 g
0h
0i
b1 w
b0 y
b0 z
b0 {
b0 |
0}
0~
#70000
0!
05
07
b110 :
0<
0B
#75000
1!
b1 /!
b0 1!
b0 2!
b0 3!
b0 4!
15
05!
06!
17
b1 A!
1B
b0 C!
b0 D!
b0 E!
b0 F!
0G!
0H!
b1 b
b0 d
b0 e
b0 f
b0 g
0h
0i
b1 w
b0 y
b0 z
b0 {
b0 |
0}
0~
#80000
0!
05
07
b111 :
0<
0B
#85000
1!
b1 /!
b0 1!
b0 2!
b0 3!
b0 4!
15
05!
06!
17
b1 A!
1B
b0 C!
b0 D!
b0 E!
b0 F!
0G!
0H!
b1 b
b0 d
b0 e
b0 f
b0 g
0h
0i
b1 w
b0 y
b0 z
b0 {
b0 |
0}
0~
#90000
0!
05
07
b1000 :
0<
0B
#95000
1!
b1 /!
b0 1!
b0 2!
b0 3!
b0 4!
15
05!
06!
17
b1 A!
1B
b0 C!
b0 D!
b0 E!
b0 F!
0G!
0H!
b1 b
b0 d
b0 e
b0 f
b0 g
0h
0i
b1 w
b0 y
b0 z
b0 {
b0 |
0}
0~
#100000
0!
05
07
b1001 :
0<
0B
#105000
1!
b1 /!
b0 1!
b0 2!
b0 3!
b0 4!
15
05!
06!
17
b1 A!
1B
b0 C!
b0 D!
b0 E!
b0 F!
0G!
0H!
b1 b
b0 d
b0 e
b0 f
b0 g
0h
0i
b1 w
b0 y
b0 z
b0 {
b0 |
0}
0~
#110000
0!
0"
05
07
08
b1010 :
1<
1>
0B
0C
#115000
1!
b1 /!
b0 1!
b0 2!
15
06!
17
b1 A!
1B
b0 C!
b0 D!
0H!
b1 b
b0 d
b0 e
0i
b1 w
b0 y
b0 z
0~
#120000
0!
b101100 &
b1 (
b10110 *
b1 +
05
07
0B
b101100 F
b1 G
b10110 I
b1 J
1V
b101100 X
1Y
b10110 [
b1000 c
#125000
1!
b10 )
b10 ,
b1 /!
b0 1!
b0 2!
15
06!
17
b1 A!
1B
b0 C!
b0 D!
b10 H
0H!
b10 K
0W
0Z
0\
b101100 ^
0_
b10110 a
b1000 b
b10000 c
b101100 d
b10110 e
0i
b1 w
b0 y
b0 z
0~
#130000
0!
b0 %
b0 (
b0 +
05
07
0B
b0 G
b0 J
0V
0Y
b10000 c
#135000
1!
b1 %
b10110 .!
b1 /!
b0 1!
b10110 2!
15
06!
17
b1 A!
1B
b0 C!
b0 D!
0H!
0W
0Z
0\
0_
b10000 b
b10000000 c
b1111001000 g
0i
b101100 s
b1 w
b101100 y
b0 z
0~
#140000
0!
05
07
0B
#145000
1!
1$
b10 %
b1111001000 -
b1 /!
b100 0!
b0 1!
b10110 2!
15
06!
17
b1 A!
1B
b0 C!
b0 D!
0H!
b1111001000 L
b1111001000 T
0W
0Z
1\
1_
b10000000 b
b1 c
b1111001000 f
0i
b1 w
b10 x
b101100 y
b0 z
0~
#150000
0!
05
07
0B
#155000
1!
b11 %
1'!
b11 )
0)!
b11 ,
0,!
b100 /!
b100 0!
b0 1!
b10110 2!
15
06!
17
b1 A!
1B
b0 C!
b0 D!
b11 H
0H!
b11 K
1W
1Z
0\
0]
0_
0`
b1 b
b1 c
0i
1o
0q
0t
b10 w
b10 x
b101100 y
b0 z
0~
#160000
0!
05
07
0B
#165000
1!
b100 %
b100 /!
b0 1!
15
06!
17
b1 A!
1B
b0 C!
b0 D!
0H!
b1 b
b101100 d
b10110 e
0i
b10 w
b0 z
0~
#170000
0!
05
07
0B
#175000
1!
b101 %
b100 /!
b0 1!
15
06!
17
b1 A!
1B
b0 C!
b0 D!
0H!
b1 b
b101100 d
b10110 e
0i
b10 w
b0 z
0~
#180000
0!
05
07
0B
#185000
1!
b110 %
b100 /!
b0 1!
15
06!
17
b1 A!
1B
b0 C!
b0 D!
0H!
b1 b
b101100 d
b10110 e
0i
b10 w
b0 z
0~
#190000
0!
05
07
0B
#195000
1!
b111 %
b100 /!
b0 1!
15
06!
17
b1 A!
1B
b0 C!
b0 D!
0H!
b1 b
b101100 d
b10110 e
0i
b10 w
b0 z
0~
#200000
0!
05
07
0B
#205000
1!
b1000 %
b100 /!
b0 1!
15
06!
17
b1 A!
1B
b0 C!
b0 D!
0H!
b1 b
b101100 d
b10110 e
0i
b10 w
b0 z
0~
#210000
0!
b111100000011111111111111111111111111011011 &
1&!
b11 (
b1111000000 (!
b1111111111111111111111111111111100000000000000000000000001010011 *
b11 +
b1000 0!
05
07
0B
b111100000011111111111111111111111111011011 F
b11 G
b1111111111111111111111111111111100000000000000000000000001010011 I
b11 J
1V
b11111111111111111111111111011011 X
1Y
b1010011 [
b1000 c
1n
b11111111111111111111111111111111 p
b1000 x
#215000
1!
0'!
b0 )
0)!
b1111000000 +!
b0 ,
0,!
b1000 /!
b10000 0!
b1111000000 1!
15
06!
17
b1 A!
1B
b0 C!
b0 D!
b0 H
0H!
b0 K
0W
0Z
0\
0]
b11111111111111111111111111011011 ^
0_
0`
b1010011 a
b1000 b
b10000 c
b11111111111111111111111111011011 d
b1010011 e
0i
0o
0q
0t
b11111111111111111111111111111111 v
b1000 w
b10000 x
b11111111111111111111111111111111 z
0~
#220000
0!
b0 %
0&!
b0 (
b0 +
b10000 0!
05
07
0B
b0 G
b0 J
0V
0Y
b10000 c
0n
b10000 x
#225000
1!
b1 %
0'!
0)!
0,!
b10000 /!
b10000000 0!
b101001010000000 4!
15
06!
17
b1111000000 =!
b11111111111111111111111111111111 @!
b1 A!
1B
b1111000000 C!
b11111111111111111111111111111111 D!
0H!
0W
0Z
0\
0]
0_
0`
b10000 b
b10000000 c
b11111111111111111111010000000001 g
0i
0o
0q
0t
b10000 w
b10000000 x
b11111111111111111111111111010100 |
0~
#230000
0!
05
07
0B
#235000
1!
1$
b101001010000000 $!
b10 %
0'!
1)!
1,!
b111111111111111111111111110101000000000000000000010100101000000011111111111111111111011111001001 -
b10000000 /!
b1 0!
b101001010000000 3!
15
06!
17
b1 A!
1B
b1000 B!
b1111000000 C!
b11111111111111111111111111111111 D!
0H!
b111111111111111111111111110101000000000000000000010100101000000011111111111111111111011111001001 L
b11111111111111111111011111001001 T
0W
0Z
1\
0]
1_
0`
b10000000 b
b10000000 c
b11111111111111111111011111001001 f
0i
b11111111111111111111111111010100 l
0o
1q
1t
b10000000 w
b1 x
b11111111111111111111111111010100 {
0~
#240000
0!
05
07
0B
#245000
1!
b11 %
1'!
b10 )
0)!
0*!
b10 ,
0,!
b1 /!
b100 0!
15
06!
17
0;!
0>!
b1000 A!
1B
b10000 B!
b1111000000 C!
b11111111111111111111111111111111 D!
b10 H
0H!
b10 K
1]
1`
b10000000 b
b1 c
0i
1o
0q
0t
0u
b1 w
b10 x
0~
#250000
0!
05
07
0B
#255000
1!
b100 %
1'!
b11 )
0)!
0*!
b11 ,
0,!
b1010011 .!
b100 /!
b100 0!
b1111000000 1!
b1010011 2!
15
06!
17
0;!
0>!
b10000 A!
1B
b10000000 B!
b11111111111111111111110001000000 F!
b11 H
0H!
b11 K
1W
1Z
0\
0]
0_
0`
b1 b
b1 c
0i
1o
0q
b11111111111111111111111111011011 s
0t
0u
b10 w
b10 x
b11111111111111111111111111011011 y
b11111111111111111111111111111111 z
0~
#260000
0!
05
07
0B
#265000
1!
1$
b101 %
0*!
b11111111111111111111110001000000111111111111111111111111110101000000000000000000010100101000000011111111111111111111011111001001 -
b100 /!
b1111000000 1!
15
06!
17
b11111111111111111111110001000000 9!
1;!
1>!
b10000000 A!
1B
b1 B!
b11111111111111111111110001000000 E!
0H!
b11111111111111111111110001000000111111111111111111111111110101000000000000000000010100101000000011111111111111111111011111001001 L
b1 b
b11111111111111111111111111011011 d
b1010011 e
0i
0u
b10 w
b11111111111111111111111111111111 z
0~
#270000
0!
05
07
0B
#275000
1!
b110 %
1*!
b100 /!
b100 0!
b1111000000 1!
15
06!
17
0;!
0>!
b1 A!
1B
b1 B!
0H!
b1 b
b11111111111111111111111111011011 d
b1010011 e
0i
1u
b10 w
b10 x
b11111111111111111111111111111111 z
0~
#280000
0!
05
07
0B
#285000
1!
b111 %
b100 /!
b1111000000 1!
15
06!
17
b1 A!
1B
b1111000000 C!
b11111111111111111111111111111111 D!
0H!
b1 b
b11111111111111111111111111011011 d
b1010011 e
0i
b10 w
b11111111111111111111111111111111 z
0~
#290000
0!
05
07
0B
#295000
1!
b1000 %
b100 /!
b1111000000 1!
15
06!
17
b1 A!
1B
b1111000000 C!
b11111111111111111111111111111111 D!
0H!
b1 b
b11111111111111111111111111011011 d
b1010011 e
0i
b10 w
b11111111111111111111111111111111 z
0~
#300000
0!
b101000000000000000000000000000000000 &
1&!
b10 (
b1010 (!
b110001100000000000000000000000000000000 *
b10 +
b1000 0!
05
07
0B
b101000000000000000000000000000000000 F
b10 G
b110001100000000000000000000000000000000 I
b10 J
b0 X
b0 [
1n
b1100011 p
b1000 x
#305000
1!
0'!
b1 )
0)!
b1010 +!
b1 ,
0,!
b1000 /!
b10000 0!
b1010 1!
15
06!
17
b1 A!
1B
b1111000000 C!
b11111111111111111111111111111111 D!
b1 H
0H!
b1 K
0]
b0 ^
0`
b0 a
b1 b
b0 d
b0 e
0i
0o
0q
0t
b1100011 v
b1000 w
b10000 x
b1100011 z
0~
#310000
0!
b0 %
0&!
b0 (
b0 +
b10000 0!
05
07
0B
b0 G
b0 J
0n
b10000 x
#315000
1!
b1 %
0'!
0)!
0,!
b10000 /!
b10000000 0!
b1100111110 4!
15
06!
17
b1010 =!
b1100011 @!
b1 A!
1B
b1010 C!
b1100011 D!
0H!
0]
0`
b1 b
b0 d
b0 e
0i
0o
0q
0t
b10000 w
b10000000 x
b11111111111111111111000110110001 |
0~
#320000
0!
05
07
0B
#325000
1!
1$
b101010110111110 $!
b10 %
0'!
1)!
1,!
b11111111111111111111110001000000111111111111111111110001100001010000000000000000010101011011111011111111111111111111011111001001 -
b10000000 /!
b1 0!
b101010110111110 3!
15
06!
17
b1 A!
1B
b1000 B!
b1010 C!
b1100011 D!
0H!
b11111111111111111111110001000000111111111111111111110001100001010000000000000000010101011011111011111111111111111111011111001001 L
0]
0`
b1 b
b0 d
b0 e
0i
b11111111111111111111000110000101 l
0o
1q
1t
b10000000 w
b1 x
b11111111111111111111000110000101 {
0~
#330000
0!
05
07
0B
#335000
1!
b11 %
1'!
b11 )
0)!
0*!
b11 ,
0,!
b1 /!
b1 0!
15
06!
17
0;!
0>!
b1000 A!
1B
b10000 B!
b1010 C!
b1100011 D!
b11 H
0H!
b11 K
1]
1`
b1 b
b1 c
b0 d
b0 e
0i
1o
0q
0t
0u
b1 w
b1 x
0~
#340000
0!
05
07
0B
#345000
1!
b100 %
0*!
b0 .!
b1 /!
b1010 1!
b0 2!
15
06!
17
0;!
0>!
b10000 A!
1B
b10000000 B!
b1111011110 F!
0H!
b1 b
b0 d
b0 e
0i
b0 s
0u
b1 w
b0 y
b1100011 z
0~
#350000
0!
05
07
0B
#355000
1!
0$
b101 %
0*!
b11110111111111111111111110001100001010000000000000000010101011011111011111111111111111111011111001001 -
b1 /!
b1010 1!
b0 2!
15
06!
17
b11110 9!
1;!
1>!
b10000000 A!
1B
b1 B!
b11110 E!
0H!
b11110111111111111111111110001100001010000000000000000010101011011111011111111111111111111011111001001 L
b1 b
b0 d
b0 e
0i
0u
b1 w
b0 y
b1100011 z
0~
#360000
0!
05
07
0B
#365000
1!
b110 %
1*!
b1 /!
b1 0!
b1010 1!
b0 2!
15
06!
17
0;!
0>!
b1 A!
1B
b1 B!
0H!
b1 b
b0 d
b0 e
0i
1u
b1 w
b1 x
b0 y
b1100011 z
0~
#370000
0!
05
07
0B
#375000
1!
b111 %
b1 /!
b1010 1!
b0 2!
15
06!
17
b1 A!
1B
b1010 C!
b1100011 D!
0H!
b1 b
b0 d
b0 e
0i
b1 w
b0 y
b1100011 z
0~
#380000
0!
05
07
0B
#385000
1!
b1000 %
15
17
1B
